0,0,0
1,0,1
2,0,2
3,0,3
4,0,4
5,0,5
6,0,6
7,0,7
8,0,8
9,0,9
10,0,10
11,0,11
12,0,12
13,0,13
14,0,14
15,0,15
16,0,16
17,0,17
18,0,18
19,0,19
20,1,0
21,1,1
22,1,2
23,1,3
24,1,4
25,1,5
26,1,6
27,1,7
28,1,8
29,1,9
30,1,10
31,1,11
32,1,12
33,1,13
34,1,14
35,1,15
36,1,16
37,1,17
38,1,18
39,1,19
40,2,0
41,2,1
42,2,2
43,2,3
44,2,4
45,2,5
46,2,6
47,2,7
48,2,8
49,2,9
50,2,10
51,2,11
52,2,12
53,2,13
54,2,14
55,2,15
56,2,16
57,2,17
58,2,18
59,2,19
60,3,0
61,3,1
62,3,2
63,3,3
64,3,4
65,3,5
66,3,6
67,3,7
68,3,8
69,3,9
70,3,10
71,3,11
72,3,12
73,3,13
74,3,14
75,3,15
76,3,16
77,3,17
78,3,18
79,3,19