// memory data file (do not edit the following line - required for mem load use)
// instance=/tb_tx_top/uut/tsi14/dual_port_ram_rptr/ram
// format=mti addressradix=d dataradix=b version=1.0 wordsperline=1
0: 01000010
1: 01000111
2: 01001100
3: 00111101
4: 01000011
5: 00111110
6: 01001101
7: 01001000
8: 01001110
9: 01001001
10: 01000100
11: 00000010
12: 01000101
13: 00000011
14: 01001111
15: 01001010
16: 00111001
17: 00110100
18: 00101111
19: 00101010
20: 00111100
21: 01000001
22: 01000110
23: 01001011
24: 00110001
25: 00110110
26: 00000001
27: 00111011
28: 00111010
29: 00110101
30: 00110000
31: 00000000
32: 00101110
33: 00111000
34: 00110011
35: 00101001
36: 00011101
37: 00011000
38: 00100111
39: 00100010
40: 00110111
41: 00101101
42: 00101000
43: 00110010
44: 00010000
45: 00101100
46: 00000110
47: 00001011
48: 00100000
49: 00100101
50: 00011011
51: 00010110
52: 00011010
53: 00010101
54: 00100100
55: 00011111
56: 00010111
57: 00011100
58: 00100110
59: 00100001
60: 00001000
61: 00001101
62: 00010010
63: 01000000
64: 00000111
65: 00001100
66: 00010001
67: 00111111
68: 00001001
69: 00001110
70: 00010011
71: 00000100
72: 00100011
73: 00011110
74: 00011001
75: 00010100
76: 00000101
77: 00001010
78: 00101011
79: 00001111
80: 01000010
81: 01000111
82: 01001100
83: 00111101
84: 01000011
85: 00111110
86: 01001101
87: 01001000
88: 01001110
89: 01001001
90: 01000100
91: 00111111
92: 01000101
93: 01000000
94: 01001111
95: 01001010
96: 00111001
97: 00110100
98: 00101111
99: 00101010
100: 00111100
101: 01000001
102: 01000110
103: 01001011
104: 00110001
105: 00110110
106: 00101100
107: 00111011
108: 00111010
109: 00110101
110: 00110000
111: 00101011
112: 00101110
113: 00111000
114: 00110011
115: 00101001
116: 00011101
117: 00011000
118: 00100111
119: 00100010
120: 00110111
121: 00101101
122: 00101000
123: 00110010
124: 00001011
125: 00010000
126: 00000001
127: 00000110
128: 00100000
129: 00100101
130: 00011011
131: 00010110
132: 00011010
133: 00010101
134: 00100100
135: 00011111
136: 00010111
137: 00011100
138: 00100110
139: 00100001
140: 00000011
141: 00001000
142: 00001101
143: 00010010
144: 00000010
145: 00000111
146: 00001100
147: 00010001
148: 00001001
149: 00001110
150: 00010011
151: 00000100
152: 00100011
153: 00011110
154: 00011001
155: 00010100
156: 00000000
157: 00000101
158: 00001111
159: 00001010
