// memory data file (do not edit the following line - required for mem load use)
// instance=/tb_tx_top/uut/tsi14/dual_port_ram_rptr/ram
// format=mti addressradix=d dataradix=b version=1.0 wordsperline=1
0: 00111000
1: 00111001
2: 00111011
3: 00111010
4: 00110011
5: 00110010
6: 00110000
7: 00110001
8: 00111100
9: 00111101
10: 00111110
11: 00111111
12: 01000111
13: 01000100
14: 01000101
15: 01000110
16: 01000000
17: 01000001
18: 01000010
19: 01000011
20: 00010100
21: 00010101
22: 00010110
23: 00010111
24: 00100011
25: 00100000
26: 00100010
27: 00100001
28: 00101010
29: 00101001
30: 00101011
31: 00101000
32: 01001100
33: 01001101
34: 01001111
35: 01001110
36: 01001011
37: 01001010
38: 01001001
39: 01001000
40: 00001011
41: 00001010
42: 00001001
43: 00001000
44: 00001101
45: 00001100
46: 00001111
47: 00001110
48: 00000011
49: 00000000
50: 00000001
51: 00000010
52: 00000101
53: 00000100
54: 00000111
55: 00000110
56: 00011010
57: 00011000
58: 00011001
59: 00011011
60: 00101110
61: 00101111
62: 00101100
63: 00101101
64: 00100101
65: 00100100
66: 00100111
67: 00100110
68: 00110101
69: 00110100
70: 00110111
71: 00110110
72: 00010011
73: 00010010
74: 00010001
75: 00010000
76: 00011111
77: 00011110
78: 00011101
79: 00011100
80: 00111000
81: 00111001
82: 00111011
83: 00111010
84: 00110011
85: 00110010
86: 00110000
87: 00110001
88: 00111100
89: 00111101
90: 00111110
91: 00111111
92: 01000111
93: 01000100
94: 01000101
95: 01000110
96: 01000000
97: 01000001
98: 01000010
99: 01000011
100: 00010100
101: 00010101
102: 00010110
103: 00010111
104: 00100011
105: 00100000
106: 00100010
107: 00100001
108: 00101010
109: 00101001
110: 00101011
111: 00101000
112: 01001100
113: 01001101
114: 01001111
115: 01001110
116: 01001011
117: 01001010
118: 01001001
119: 01001000
120: 00001011
121: 00001010
122: 00001001
123: 00001000
124: 00001101
125: 00001100
126: 00001111
127: 00001110
128: 00000011
129: 00000000
130: 00000001
131: 00000010
132: 00000101
133: 00000100
134: 00000111
135: 00000110
136: 00011010
137: 00011000
138: 00011001
139: 00011011
140: 00101110
141: 00101111
142: 00101100
143: 00101101
144: 00100101
145: 00100100
146: 00100111
147: 00100110
148: 00110101
149: 00110100
150: 00110111
151: 00110110
152: 00010011
153: 00010010
154: 00010001
155: 00010000
156: 00011111
157: 00011110
158: 00011101
159: 00011100
