// memory data file (do not edit the following line - required for mem load use)
// instance=/tb_tx_top/uut/tsi18/dual_port_ram_rptr/ram
// format=mti addressradix=d dataradix=b version=1.0 wordsperline=1
0: 00111100
1: 00111101
2: 00111110
3: 00111111
4: 00101010
5: 00101001
6: 00101011
7: 00101000
8: 01001100
9: 01001101
10: 01001111
11: 01001110
12: 00110101
13: 00110100
14: 00110111
15: 00110110
16: 00011111
17: 00011110
18: 00011101
19: 00011100
20: 01000111
21: 01000100
22: 01000101
23: 01000110
24: 01000000
25: 01000001
26: 01000010
27: 01000011
28: 00101110
29: 00101111
30: 00101100
31: 00101101
32: 00100101
33: 00100100
34: 00100111
35: 00100110
36: 00100011
37: 00100000
38: 00100010
39: 00100001
40: 00111000
41: 00111001
42: 00111011
43: 00111010
44: 00011010
45: 00011000
46: 00011001
47: 00011011
48: 00010011
49: 00010010
50: 00010001
51: 00010000
52: 00010100
53: 00010101
54: 00010110
55: 00010111
56: 00001011
57: 00001010
58: 00001001
59: 00001000
60: 00001101
61: 00001100
62: 00001111
63: 00001110
64: 00000011
65: 00000000
66: 00000001
67: 00000010
68: 00000101
69: 00000100
70: 00000111
71: 00000110
72: 00110011
73: 00110010
74: 00110000
75: 00110001
76: 01001011
77: 01001010
78: 01001001
79: 01001000
80: 00111100
81: 00111101
82: 00111110
83: 00111111
84: 00101010
85: 00101001
86: 00101011
87: 00101000
88: 01001100
89: 01001101
90: 01001111
91: 01001110
92: 00110101
93: 00110100
94: 00110111
95: 00110110
96: 00011111
97: 00011110
98: 00011101
99: 00011100
100: 01000111
101: 01000100
102: 01000101
103: 01000110
104: 01000000
105: 01000001
106: 01000010
107: 01000011
108: 00101110
109: 00101111
110: 00101100
111: 00101101
112: 00100101
113: 00100100
114: 00100111
115: 00100110
116: 00100011
117: 00100000
118: 00100010
119: 00100001
120: 00111000
121: 00111001
122: 00111011
123: 00111010
124: 00011010
125: 00011000
126: 00011001
127: 00011011
128: 00010011
129: 00010010
130: 00010001
131: 00010000
132: 00010100
133: 00010101
134: 00010110
135: 00010111
136: 00001011
137: 00001010
138: 00001001
139: 00001000
140: 00001101
141: 00001100
142: 00001111
143: 00001110
144: 00000011
145: 00000000
146: 00000001
147: 00000010
148: 00000101
149: 00000100
150: 00000111
151: 00000110
152: 00110011
153: 00110010
154: 00110000
155: 00110001
156: 01001011
157: 01001010
158: 01001001
159: 01001000
