// memory data file (do not edit the following line - required for mem load use)
// instance=/tb_tx_top/uut/tsi4/dual_port_ram_rptr/ram
// format=mti addressradix=d dataradix=b version=1.0 wordsperline=1
0: 00011100
1: 00100001
2: 00100110
3: 00010111
4: 00011101
5: 00011000
6: 00100111
7: 00100010
8: 00110111
9: 00110010
10: 00101101
11: 00101000
12: 00101110
13: 00101001
14: 00111000
15: 00110011
16: 01001101
17: 01001000
18: 01000011
19: 00111110
20: 00111101
21: 01000010
22: 01000111
23: 01001100
24: 01000101
25: 01001010
26: 00000011
27: 01001111
28: 01001110
29: 01001001
30: 01000100
31: 00000010
32: 00001010
33: 00101011
34: 00001111
35: 00000101
36: 00001011
37: 00000110
38: 00101100
39: 00010000
40: 00111111
41: 00001100
42: 00000111
43: 00010001
44: 00010010
45: 01000000
46: 00001000
47: 00001101
48: 00001110
49: 00010011
50: 00001001
51: 00000100
52: 00011001
53: 00010100
54: 00100011
55: 00011110
56: 00010101
57: 00011010
58: 00100100
59: 00011111
60: 00111100
61: 01000001
62: 01000110
63: 01001011
64: 00000001
65: 00110001
66: 00110110
67: 00111011
68: 00011011
69: 00100000
70: 00100101
71: 00010110
72: 00111001
73: 00110100
74: 00101111
75: 00101010
76: 00000000
77: 00110000
78: 00111010
79: 00110101
80: 00011100
81: 00100001
82: 00100110
83: 00010111
84: 00011101
85: 00011000
86: 00100111
87: 00100010
88: 00110111
89: 00110010
90: 00101101
91: 00101000
92: 00101110
93: 00101001
94: 00111000
95: 00110011
96: 01001101
97: 01001000
98: 01000011
99: 00111110
100: 00111101
101: 01000010
102: 01000111
103: 01001100
104: 01000101
105: 01001010
106: 01000000
107: 01001111
108: 01001110
109: 01001001
110: 01000100
111: 00111111
112: 00000101
113: 00001111
114: 00001010
115: 00000000
116: 00000110
117: 00000001
118: 00010000
119: 00001011
120: 00010001
121: 00000111
122: 00000010
123: 00001100
124: 00001101
125: 00010010
126: 00000011
127: 00001000
128: 00001110
129: 00010011
130: 00001001
131: 00000100
132: 00011001
133: 00010100
134: 00100011
135: 00011110
136: 00010101
137: 00011010
138: 00100100
139: 00011111
140: 00111100
141: 01000001
142: 01000110
143: 01001011
144: 00101100
145: 00110001
146: 00110110
147: 00111011
148: 00011011
149: 00100000
150: 00100101
151: 00010110
152: 00111001
153: 00110100
154: 00101111
155: 00101010
156: 00101011
157: 00110000
158: 00111010
159: 00110101
