// memory data file (do not edit the following line - required for mem load use)
// instance=/tb_tx_top/rx/tsi11/dual_port_ram_rptr/ram
// format=mti addressradix=d dataradix=b version=1.0 wordsperline=1
0: 00111000
1: 00100011
2: 00000101
3: 00000011
4: 00001101
5: 00110010
6: 00101111
7: 00100100
8: 00101001
9: 00001100
10: 00110000
11: 00101100
12: 00100111
13: 00101011
14: 00001111
15: 00110001
16: 00101101
17: 00100110
18: 00101000
19: 00001110
20: 00001011
21: 00110101
22: 01001011
23: 01000000
24: 01000111
25: 00001010
26: 00110100
27: 01001010
28: 01000001
29: 01000100
30: 00001001
31: 00110111
32: 01001001
33: 01000010
34: 01000101
35: 00001000
36: 00110110
37: 01001000
38: 01000011
39: 01000110
40: 00011111
41: 01001100
42: 00111100
43: 00110011
44: 00101110
45: 00011110
46: 01001101
47: 00111101
48: 00111001
49: 00100000
50: 00011101
51: 01001111
52: 00111110
53: 00111011
54: 00100010
55: 00011100
56: 01001110
57: 00111111
58: 00111010
59: 00100001
60: 00010011
61: 00010100
62: 00011010
63: 00100101
64: 00101010
65: 00010010
66: 00010101
67: 00011000
68: 00000100
69: 00000000
70: 00010001
71: 00010110
72: 00011001
73: 00000111
74: 00000001
75: 00010000
76: 00010111
77: 00011011
78: 00000110
79: 00000010
80: 00110011
81: 00101110
82: 00100101
83: 00101010
84: 00001101
85: 00110010
86: 00101111
87: 00100100
88: 00101001
89: 00001100
90: 00110000
91: 00101100
92: 00100111
93: 00101011
94: 00001111
95: 00110001
96: 00101101
97: 00100110
98: 00101000
99: 00001110
100: 00001011
101: 00110101
102: 01001011
103: 01000000
104: 01000111
105: 00001010
106: 00110100
107: 01001010
108: 01000001
109: 01000100
110: 00001001
111: 00110111
112: 01001001
113: 01000010
114: 01000101
115: 00001000
116: 00110110
117: 01001000
118: 01000011
119: 01000110
120: 00011111
121: 01001100
122: 00111100
123: 00111000
124: 00100011
125: 00011110
126: 01001101
127: 00111101
128: 00111001
129: 00100000
130: 00011101
131: 01001111
132: 00111110
133: 00111011
134: 00100010
135: 00011100
136: 01001110
137: 00111111
138: 00111010
139: 00100001
140: 00010011
141: 00010100
142: 00011010
143: 00000101
144: 00000011
145: 00010010
146: 00010101
147: 00011000
148: 00000100
149: 00000000
150: 00010001
151: 00010110
152: 00011001
153: 00000111
154: 00000001
155: 00010000
156: 00010111
157: 00011011
158: 00000110
159: 00000010
